[{
  "firstName": "Maja",
  "lastName": "Nagaja",
  "dateOfBirth": "1990-04-03",
  "vitalSigns": [
  {
    "date": "2016-07-19T09:20Z",
    "height": "164",
    "weight": "47",
    "temperature": "36.50",
    "bloodPressureSystolic": "100",
    "bloodPressureDiastolic": "59",
    "oxygenSaturation": 91
  },
  {
    "date": "2016-09-25T09:43Z",
    "height": "164",
    "weight": "44",
    "temperature": "36.39",
    "bloodPressureSystolic": "99",
    "bloodPressureDiastolic": "76",
    "oxygenSaturation": 95
  },
  {
    "date": "2017-03-21T09:57Z",
    "height": "164",
    "weight": "42",
    "temperature": "36.49",
    "bloodPressureSystolic": "105",
    "bloodPressureDiastolic": "78",
    "oxygenSaturation": 94
  },
  {
    "date": "2017-09-05T10:03Z",
    "height": "164",
    "weight": "48",
    "temperature": "37.01",
    "bloodPressureSystolic": "122",
    "bloodPressureDiastolic": "74",
    "oxygenSaturation": 87
  },
  {
    "date": "2018-01-30T09:09Z",
    "height": "165",
    "weight": "41",
    "temperature": "36.50",
    "bloodPressureSystolic": "111",
    "bloodPressureDiastolic": "69",
    "oxygenSaturation": 83
  }]
},
{
  "firstName": "Din",
  "lastName": "Mušić",
  "dateOfBirth": "1998-07-04",
  "vitalSigns": [
  {
    "date": "2016-04-20T04:20Z",
    "height": "177",
    "weight": "69",
    "temperature": "36.50",
    "bloodPressureSystolic": "110",
    "bloodPressureDiastolic": "70",
    "oxygenSaturation": 98
  },
  {
    "date": "2017-02-25T09:43Z",
    "height": "178",
    "weight": "72",
    "temperature": "36.73",
    "bloodPressureSystolic": "115",
    "bloodPressureDiastolic": "73",
    "oxygenSaturation": 99
  },
  {
    "date": "2017-08-13T13:24Z",
    "height": "178",
    "weight": "77",
    "temperature": "36.49",
    "bloodPressureSystolic": "105",
    "bloodPressureDiastolic": "78",
    "oxygenSaturation": 98
  },
  {
    "date": "2017-12-04T12:45Z",
    "height": "180",
    "weight": "80",
    "temperature": "37.77",
    "bloodPressureSystolic": "122",
    "bloodPressureDiastolic": "74",
    "oxygenSaturation": 98
  },
  {
    "date": "2018-05-01T10:38Z",
    "height": "180",
    "weight": "81",
    "temperature": "36.55",
    "bloodPressureSystolic": "111",
    "bloodPressureDiastolic": "69",
    "oxygenSaturation": 97
  }]
},
{
  "firstName": "Miha",
  "lastName": "Hrast",
  "dateOfBirth": "1963-06-29",
  "vitalSigns": [
  {
    "date": "2011-11-20T16:14Z",
    "height": "172",
    "weight": "112",
    "temperature": "37.50",
    "bloodPressureSystolic": "143",
    "bloodPressureDiastolic": "92",
    "oxygenSaturation": 76
  },
  {
    "date": "2012-11-03T13:29Z",
    "height": "172",
    "weight": "97",
    "temperature": "36.70",
    "bloodPressureSystolic": "123",
    "bloodPressureDiastolic": "88",
    "oxygenSaturation": 86
  },
  {
    "date": "2013-12-07T14:32Z",
    "height": "172",
    "weight": "108",
    "temperature": "38.16",
    "bloodPressureSystolic": "115",
    "bloodPressureDiastolic": "83",
    "oxygenSaturation": 91
  },
  {
    "date": "2014-11-18T13:44Z",
    "height": "171",
    "weight": "99",
    "temperature": "36.54",
    "bloodPressureSystolic": "109",
    "bloodPressureDiastolic": "71",
    "oxygenSaturation": 95
  },
  {
    "date": "2016-01-08T15:05Z",
    "height": "171",
    "weight": "89",
    "temperature": "36.50",
    "bloodPressureSystolic": "108",
    "bloodPressureDiastolic": "71",
    "oxygenSaturation": 92
  }]
}]